利尻山（利尻富士）, 
羅臼岳, 羅臼岳
斜里岳, 斜里岳
阿寒岳（雌阿寒岳）, 
大雪山（旭岳）, 
トムラウシ山, 富良牛山
十勝岳, 十勝岳
幌尻岳, 幌尻岳
後方羊蹄山（羊蹄山）, 
岩木山, 岩木山
八甲田山（大岳）, 
八幡平, 八幡平
岩手山, 岩手山
早池峰山, 早池峰山
鳥海山（新山）, 
月山, 月山
朝日岳（大朝日岳）, 
蔵王山（熊野岳）, 
飯豊山, 飯豐山
吾妻山（西吾妻山）, 
安達太良山, 安達太良山
磐梯山, 磐梯山
駒ヶ岳（会津駒ヶ岳）, 
那須岳（茶臼岳）, 
駒ヶ岳（越後駒ヶ岳）, 
平ヶ岳, 
巻機山, 
燧ヶ岳（柴安）, 
至仏山, 
谷川岳（オキノ耳）, 
雨飾山, 
苗場山, 苗場山
妙高山, 妙高山
火打山, 火打山
高妻山, 
男体山, 男體山
白根山（日光白根山）, 
皇海山, 皇海山
武尊山, 
赤城山（黒?山）, 
本白根山（草津白根山）, 
四阿山, 
浅間山, 淺間山
筑波山, 筑波山
白馬岳, 
五龍岳, 
鹿島槍ヶ岳, 
剱岳, 劍岳
立山（大汝山）, 
薬師岳, 
黒部五郎岳（中ノ俣岳）, 
水晶岳（黒岳）, 
鷲羽岳, 
槍ヶ岳, 槍岳
穂高岳（奥穂高岳）, 
常念岳, 
笠ヶ岳, 
焼岳, 燒岳
乗鞍岳（剣ヶ峰）, 
御嶽山（剣ヶ峰）, 
美ヶ原（王ヶ頭）, 
霧ヶ峰（車山）, 
蓼科山, 蓼科山
八ヶ岳（赤岳）, 
両神山, 
雲取山, 云取山
甲武信ヶ岳, 甲武信岳
金峰山, 金峰山
瑞牆山, 
大菩薩嶺, 大菩薩嶺
丹沢山（蛭ヶ岳）, 
富士山（剣ヶ峰）, 
天城山（万三郎岳）, 
駒ヶ岳（木曽駒ヶ岳）, 
空木岳, 
恵那山, 駒ヶ岳（甲斐駒ヶ岳）, 
仙丈ヶ岳, 
鳳凰山（観音ヶ岳）, 
北岳, 北岳 (日本)
間ノ岳, 
塩見岳, 
悪沢岳（東岳）, 
赤石岳, 
聖岳（前聖岳）, 
光岳, 光岳
白山（御前峰）, 
荒島岳, 荒島岳
伊吹山, 伊吹山
大台ヶ原山（日出ヶ岳）, 
大峰山（八経ヶ岳）, 
大山（剣ヶ峰）, 
剣山, 劍山 (德島縣)
石鎚山（天狗岳）, 
くじゅう連山（久住山）, 
祖母山, 
阿蘇山（高岳）, 
霧島山（韓国岳）, 
開聞岳, 開聞岳
宮之浦岳, 宫之浦岳
